\relax 
\@writefile{toc}{\contentsline {section}{\numberline {1}How to get and use Quantsoft}{1}}
\@writefile{toc}{\contentsline {section}{\numberline {2}For Developers: The code explained}{1}}
\@writefile{toc}{\contentsline {subsection}{\numberline {2.1}Network.*pp}{1}}
